﻿StockExchangeID,Name,Code
91F1F7FA-9658-DF11-B94C-00C09FC85DD6,Nairobi Securities Exchange,NSE
9F400CEF-CEED-E511-8348-B8CA3AE0B37C,Jumanji Stock Exchange,JSE
C0160B73-76EF-E511-8348-B8CA3AE0B37C,NYSE Euronext,NYSE
14050708-7CEF-E511-8348-B8CA3AE0B37C,Sao Paolo Stock Exchange,SPSE
